GET https://3bf10d45-a33a-4c93-b8d5-1acc123d7d10-00-2ugev1n6w28cf.sisko.replit.dev/api/redemptions?page=1&limit=10 200

Request Headers

Authorization: Bearer eyJhbGciOiJIUzI1NiIsInR5cCI6IkpXVCJ9.eyJ1c2VyX2lkIjoiNjg5YTMyMzI2N2NmYzUxYjhhMjZjNTVmIiwiZW1haWwiOiJ2cGF5YWxAc29sdWxhYi5jbyIsImlhdCI6MTc1NTYwNTA3MSwiZXhwIjoxNzU1NjkxNDcxfQ.31u4NW342MLLPJfs7I6uB2mz7crLcqB01U0EPtHcPQc

Response Headers

cache-control: no-cache, no-store, must-revalidate
content-length: 7337
content-type: application/json; charset=utf-8
date: Wed, 20 Aug 2025 11:26:41 GMT
etag: W/"1ca9-Jbs4TFsGFTtpDa08V5ig264g9Ks"
expires: 0
pragma: no-cache
replit-cluster: sisko
x-powered-by: Express
x-robots-tag: none, noindex, noarchive, nofollow, nositelinkssearchbox, noimageindex, none, noindex, noarchive, nofollow, nositelinkssearchbox, noimageindex

{"success":true,"message":"Redemptions retrieved successfully","redemptions":[{"_id":"68a59f6b7c9cb9052f6fe3eb","id":"68a59f6b7c9cb9052f6fe3eb","token":"GOLD","quantity":"1","gramsAmount":"0","tokenValueUSD":"0","network":"Solana","deliveryAddress":"Delhi, Noida, Delhi 241231, India","status":"pending","requestId":null,"transactionHash":"4dAKBbTBJfW5bGQuw7JGoxSwX6vShMFRVu2VfD4gjtS2X44gYJu3E2bjZykckuFnzMn2SHxJBPgaHhZuPYWmX4QG","errorMessage":null,"deliveryFee":"0","totalCostUSD":"0","walletAddress":"3GTCAyJDy9Sc7wyjHW5MFkoQWLSWFe4RmRVGiFFvndMi","user_info":{"_id":"689a323267cfc51b8a26c55f","email":"vpayal@solulab.co","first_name":"Vivek","last_name":"","country":"Belize","state":"Corozal District"},"createdAt":"2025-08-20T10:11:55.933Z","updatedAt":"2025-08-20T10:11:55.933Z"},{"_id":"68a4b3948b47866ff4c41c7f","id":"68a4b3948b47866ff4c41c7f","token":"GOLD","quantity":"1","gramsAmount":"0","tokenValueUSD":"0","network":"Solana","deliveryAddress":"Delhi, Noida, Delhi 241231, India","status":"pending","requestId":"8","transactionHash":"4dayEw8Hzawuizdddg7LxSYygURw7ikaKQQNiVLYMvdLSGgCSunCtHy3gDGQmLmvoi7yCvb2wCXsvMFWjwehr9KB","errorMessage":null,"deliveryFee":"0","totalCostUSD":"0","walletAddress":"3GTCAyJDy9Sc7wyjHW5MFkoQWLSWFe4RmRVGiFFvndMi","user_info":{"_id":"689a323267cfc51b8a26c55f","email":"vpayal@solulab.co","first_name":"Vivek","last_name":"","country":"Belize","state":"Corozal District"},"createdAt":"2025-08-19T17:25:40.261Z","updatedAt":"2025-08-19T17:25:40.261Z"},{"_id":"68a4a8926d75ec8671978cb7","id":"68a4a8926d75ec8671978cb7","token":"GOLD","quantity":"0.1","gramsAmount":"0","tokenValueUSD":"0","network":"Solana","deliveryAddress":"Delhi, Noida, Delhi 241231, India","status":"pending","requestId":null,"transactionHash":"7w3fQatSPYCxVeizguihHvaPdoNK6tniD4MySms2WvP3sn6ybYCREAEvU4geWrsccF98s7U3rwbDiBvf5coy2nj","errorMessage":null,"deliveryFee":"0","totalCostUSD":"0","walletAddress":"3GTCAyJDy9Sc7wyjHW5MFkoQWLSWFe4RmRVGiFFvndMi","user_info":{"_id":"689a323267cfc51b8a26c55f","email":"vpayal@solulab.co","first_name":"Vivek","last_name":"","country":"Belize","state":"Corozal District"},"createdAt":"2025-08-19T16:38:42.182Z","updatedAt":"2025-08-19T16:38:42.182Z"},{"_id":"68a4a5e16d75ec8671978cb6","id":"68a4a5e16d75ec8671978cb6","token":"GOLD","quantity":"0.1","gramsAmount":"0","tokenValueUSD":"0","network":"Solana","deliveryAddress":"Delhi, Noida, Delhi 241231, India","status":"pending","requestId":null,"transactionHash":"5KLPx51iperx4V3LohfPGihwxcHZA5fMnpGYBjh5dYpwTkSeBn8HbXeoZS84dtgmrP1PJp6Qv1fND7idvM71v2Qj","errorMessage":null,"deliveryFee":"0","totalCostUSD":"0","walletAddress":"3GTCAyJDy9Sc7wyjHW5MFkoQWLSWFe4RmRVGiFFvndMi","user_info":{"_id":"689a323267cfc51b8a26c55f","email":"vpayal@solulab.co","first_name":"Vivek","last_name":"","country":"Belize","state":"Corozal District"},"createdAt":"2025-08-19T16:27:13.170Z","updatedAt":"2025-08-19T16:27:13.170Z"},{"_id":"68a47c0938808a1de6602c6d","id":"68a47c0938808a1de6602c6d","token":"GOLD","quantity":"0.1","gramsAmount":"0","tokenValueUSD":"0","network":"Solana","deliveryAddress":"Delhi, Noida, Delhi 241231, India","status":"pending","requestId":null,"transactionHash":"4RshaMMCw3z355aFyLANmfCfTHNAkQCL2JzsxDXMGfQbciZ4vPCRmPWHSP7vBjxStXVm6YwNrXXGJPKKjomgQz9p","errorMessage":null,"deliveryFee":"0","totalCostUSD":"0","walletAddress":"3GTCAyJDy9Sc7wyjHW5MFkoQWLSWFe4RmRVGiFFvndMi","user_info":{"_id":"689a323267cfc51b8a26c55f","email":"vpayal@solulab.co","first_name":"Vivek","last_name":"","country":"Belize","state":"Corozal District"},"createdAt":"2025-08-19T13:28:41.627Z","updatedAt":"2025-08-19T13:28:41.627Z"},{"_id":"68a43b90b11cfabf9158d2c0","id":"68a43b90b11cfabf9158d2c0","token":"GOLD","quantity":"1","gramsAmount":"0","tokenValueUSD":"0","network":"Solana","deliveryAddress":"Delhi, Noida, Delhi 241231, India","status":"pending","requestId":null,"transactionHash":"kD8wbwbdh52hCsbxLUhEw6fVGEsRunT2KFUBwEKt3RC1YaodEGw4noPjHFbJbMwCneEuz3A4TZVmCWene1aHKd5","errorMessage":null,"deliveryFee":"0","totalCostUSD":"0","walletAddress":"3GTCAyJDy9Sc7wyjHW5MFkoQWLSWFe4RmRVGiFFvndMi","user_info":{"_id":"689a323267cfc51b8a26c55f","email":"vpayal@solulab.co","first_name":"Vivek","last_name":"","country":"Belize","state":"Corozal District"},"createdAt":"2025-08-19T08:53:36.413Z","updatedAt":"2025-08-19T08:53:36.413Z"},{"_id":"68a4392d2f43bebd1c9fdb01","id":"68a4392d2f43bebd1c9fdb01","token":"GOLD","quantity":"1","gramsAmount":"0","tokenValueUSD":"0","network":"Solana","deliveryAddress":"Delhi, Noida, Delhi 241231, India","status":"pending","requestId":null,"transactionHash":"3nfAicYTMSA9Ck6t8wS2YxByWzyTnCud4NKbi5FTjWvscJmKCW4wjLd2nRPL5R8W3Mk6j9D9Mi4p6P6e3Weo5aiy","errorMessage":null,"deliveryFee":"0","totalCostUSD":"0","walletAddress":"3GTCAyJDy9Sc7wyjHW5MFkoQWLSWFe4RmRVGiFFvndMi","user_info":{"_id":"689a323267cfc51b8a26c55f","email":"vpayal@solulab.co","first_name":"Vivek","last_name":"","country":"Belize","state":"Corozal District"},"createdAt":"2025-08-19T08:43:25.923Z","updatedAt":"2025-08-19T08:43:25.923Z"},{"_id":"68a424d8aef8377a45a7bf5d","id":"68a424d8aef8377a45a7bf5d","token":"GOLD","quantity":"0.1","gramsAmount":"0.1","tokenValueUSD":"6.550000000000001","network":"Ethereum","deliveryAddress":"testing cancel, Toronto, Vorarlberg 24713, Austria","status":"pending","requestId":"25","transactionHash":"0x1a5e7d413a4a684041430a6275866b98029e0354ba458ca1120a6dbcdb78f488","errorMessage":null,"deliveryFee":"0","totalCostUSD":"0.0015469639356651946","walletAddress":"0x2761fD00934834591B8f93F782364B31ceCDbE32","user_info":{"_id":"689a323267cfc51b8a26c55f","email":"vpayal@solulab.co","first_name":"Vivek","last_name":"","country":"Belize","state":"Corozal District"},"createdAt":"2025-08-19T07:16:40.191Z","updatedAt":"2025-08-19T07:17:10.490Z"},{"_id":"68a421a80d95e07613af73a6","id":"68a421a80d95e07613af73a6","token":"GOLD","quantity":"0.01","gramsAmount":"0.01","tokenValueUSD":"0.655","network":"Ethereum","deliveryAddress":"delhi, Pune, Saint Lucy 24713, Barbados","status":"pending","requestId":"24","transactionHash":"0xba080e286e5606168721d17be3c4670611b94493f4855ea0eab5faf67c7de5a3","errorMessage":null,"deliveryFee":"0","totalCostUSD":"0.00015456315261636484","walletAddress":"0x2761fD00934834591B8f93F782364B31ceCDbE32","user_info":{"_id":"689a323267cfc51b8a26c55f","email":"vpayal@solulab.co","first_name":"Vivek","last_name":"","country":"Belize","state":"Corozal District"},"createdAt":"2025-08-19T07:03:04.997Z","updatedAt":"2025-08-19T07:04:51.203Z"},{"_id":"68a41f5c541c9b1b77f9bea0","id":"68a41f5c541c9b1b77f9bea0","token":"GOLD","quantity":"0.1","gramsAmount":"0.1","tokenValueUSD":"6.550000000000001","network":"Ethereum","deliveryAddress":"delhi, Kashipur, Saint Michael 24713, Barbados","status":"fulfilled","requestId":"23","transactionHash":"0x23a7d740ade73955fbd0f760c6397f1d62eef36c4af10a25715c982f08430f02","errorMessage":null,"deliveryFee":"0","totalCostUSD":"0.0015443232563293677","walletAddress":"0x2761fD00934834591B8f93F782364B31ceCDbE32","user_info":{"_id":"689a323267cfc51b8a26c55f","email":"vpayal@solulab.co","first_name":"Vivek","last_name":"","country":"Belize","state":"Corozal District"},"createdAt":"2025-08-19T06:53:16.242Z","updatedAt":"2025-08-19T08:31:27.629Z"}],"pagination":{"page":1,"limit":10,"total":29,"totalPages":3,"hasNext":true,"hasPrev":false}}
